{
  "type": "service_account",
  "project_id": "virumaa-checkpoints",
  "private_key_id": "68cba559aea3acbb54493db16c5503cf558b4cf2",
  "private_key": "-----BEGIN PRIVATE KEY-----\nMIIEvgIBADANBgkqhkiG9w0BAQEFAASCBKgwggSkAgEAAoIBAQDQ6EMvdrKnX79s\naBF72kAgk9z15dguKscMH64EaJBhRisXPF2jxt8DauuWG1VwmF5zbg4+UiyqBVLh\ncjkKSTzPuXhwbGBZ2DjN32AUKcFsFN5ZHa/O2G/lxR3S/Pfw+6vy8uArJYaR/Sls\nJuq2jN83k+JLpbmi3lL7S+5RWU9apU6d2MQXndHDhtV8u9cSnBBaWCeZx8aqyQgZ\n+HajWSAANzZYsmqzGpNWodWy54+uYNDtnipcfnSYqe4hLjt81z1H3RWGxPDE+I51\n9ZQahIt/CmBRWxfhJEVNZLrr3O2ezZq81fNGw36TgJHFsdZr2XdrsL5xGsIQdBT1\nzZN8yvXxAgMBAAECggEAMuO9iBipbRnnMvSH+8x/DiCO9UzMFHUBv4uRE8xYDYYv\nFY40PmMB7R507MBUWCUZ7xMKf7Z7YGCDH924FPAh0vVaqEJSV1iTf90wFcFVN6u+\nvWU8sE3rtkSGHyFWEdtw9/If1wrhZPtPhaPWTelzr+GDwQtKNSlk/Afzclgn+0u0\nX7cjulJSv8UdzHOxB9jJU8YAb+BpvbPihbpP3EQqXgmd45Mm7LEV54y1oPwM1jTz\n8Ur4aW/Wd6xxh3+vI3ThIYgMjmQzFhyasC4cz2iQTgPwN1dFoDyAZoOCp9uTew9f\ndwLieLjLRnRONdaLX7Gp7zZMqBfV8S07T2Es/zxXFQKBgQDwx2cajJIWnLdPPsl8\n7uqSjzNaIqQRwzXfnubf8bQOtSSVNw/NIPREZMPRhBTt++iGDnJ+9RqT4y+O/ncR\nC3wEStfeEONcvhjBu3PMT0hkHMgFqESzw86GoKDnNo2WjX6yqlSQWyrkRblk2o8O\naY7O8kcqOPx5NJnsPIbzBJeNrQKBgQDeHRJF5W+ncVQ3MuDiyrhhOLxmtoR7Y1Ve\n0pmmp+UYL2h3u62NNp6tD94V7EHcCqS9cLNaaz8kcinDRez3U/OGVhDQEtrbFBJ+\nnrJmU6piohJnoOvyMxGbyCBsnX9stIGQ1HaQFgqXBUbqDINpKQEbIwnTfQKcb0pM\nYGJfunMJ1QKBgHFilY0NEWaQmko5GQ06PUCTKu2RTo4GzYHnBHYFDnO2nemeqlRA\n5oampQgvGOQRMqieeRCMP93QqH7AGjXuoJIs5IbwkQEFjAb/TUKzOzXZz9/KI8A7\nvy/qyJrZN8fkDfv49iWcqRAiPXHe8mspDlUqBpU9jLdPLATxY+NhEDVpAoGBAJaF\ngwWlJ9aEgbrqmuZ21R7lsR+2Xu+zcH5TIFeFfka2kghaQpHpSv0jPLEEq9kvyVas\nUo9bEK5lQ5IXCDDQTr9iAgDQVkqTPrlaWLHpzxUKmohp0JwRKcS1ieuxjFIhvZBl\nu3eHyGNx6w3frwqMBDjctOMC28shzGsYAnK3SxCFAoGBAKdL6ThyN/24koCYGLBu\nZLfz3ajJhsZnu3GxWpwZG4oYSIFf2/JkM8u1Yt2vC4h1bNp55RGfyEM0YCOD/vPB\nQBolwpzg1q3b0nEZAdke0hT3J3c8WPsK+Lee7KcDUdCrASbrTRo63pFWc4NkJQRY\nm0SX58FjCgLi9CQ4d7LBxfe2\n-----END PRIVATE KEY-----\n",
  "client_email": "firebase-adminsdk-daiji@virumaa-checkpoints.iam.gserviceaccount.com",
  "client_id": "113023856115766972748",
  "auth_uri": "https://accounts.google.com/o/oauth2/auth",
  "token_uri": "https://oauth2.googleapis.com/token",
  "auth_provider_x509_cert_url": "https://www.googleapis.com/oauth2/v1/certs",
  "client_x509_cert_url": "https://www.googleapis.com/robot/v1/metadata/x509/firebase-adminsdk-daiji%40virumaa-checkpoints.iam.gserviceaccount.com"
}
